alabaster==0.7.10
Babel==2.4.0
bitbucket-cli==0.5.1
certifi==2017.4.17
cffi==1.11.0
chardet==3.0.4
docutils==0.13.1
enum==0.4.6
et-xmlfile==1.0.1
future==0.16.0
greenlet==0.4.12
idna==2.5
imagesize==0.7.1
jdcal==1.3
Jinja2==2.9.6
MarkupSafe==1.0
Nuitka==0.5.26
openpyxl==2.4.8
pprint==0.1
Pygments==2.2.0
pytz==2017.2
PyYAML==3.12
readline==6.2.4.1
requests==2.18.1
six==1.10.0
snowballstemmer==1.2.1
Sphinx==1.6.3
sphinxcontrib-websupport==1.0.1
typing==3.6.1
urllib3==1.21.1
